{
  "$id": "http://example.com/all-characters.json",
  "type": "object",
  "default": {},
  "title": "Root Schema",
  "required": [
    "info",
    "results"
  ],
  "properties": {
    "info": {
      "type": "object",
      "default": {},
      "title": "The info Schema",
      "required": [
        "count",
        "pages",
        "next",
        "prev"
      ],
      "properties": {
        "count": {
          "type": "integer",
          "default": 0,
          "title": "The count Schema",
          "examples": [
            826
          ]
        },
        "pages": {
          "type": "integer",
          "default": 0,
          "title": "The pages Schema",
          "examples": [
            42
          ]
        },
        "next": {
          "type": "string",
          "default": "",
          "title": "The next Schema",
          "examples": [
            "https://rickandmorty.zuplo.io/v1/characters/?page=2"
          ]
        },
        "prev": {
          "type": "null",
          "default": null,
          "title": "The prev Schema",
          "examples": [
            null
          ]
        }
      },
      "examples": [
        {
          "count": 826,
          "pages": 42,
          "next": "https://rickandmorty.zuplo.io/v1/characters/?page=2",
          "prev": null
        }
      ]
    },
    "results": {
      "type": "array",
      "default": [],
      "title": "The results Schema",
      "items": {
        "type": "object",
        "default": {},
        "title": "A Schema",
        "required": [
          "id",
          "name",
          "status",
          "species",
          "type",
          "gender",
          "origin",
          "location",
          "image",
          "episode",
          "url",
          "created"
        ],
        "properties": {
          "id": {
            "type": "integer",
            "default": 0,
            "title": "The id Schema",
            "examples": [
              1
            ]
          },
          "name": {
            "type": "string",
            "default": "",
            "title": "The name Schema",
            "examples": [
              "Rick Sanchez"
            ]
          },
          "status": {
            "type": "string",
            "default": "",
            "title": "The status Schema",
            "examples": [
              "Alive"
            ]
          },
          "species": {
            "type": "string",
            "default": "",
            "title": "The species Schema",
            "examples": [
              "Human"
            ]
          },
          "type": {
            "type": "string",
            "default": "",
            "title": "The type Schema",
            "examples": [
              ""
            ]
          },
          "gender": {
            "type": "string",
            "default": "",
            "title": "The gender Schema",
            "examples": [
              "Male"
            ]
          },
          "origin": {
            "type": "object",
            "default": {},
            "title": "The origin Schema",
            "required": [
              "name",
              "url"
            ],
            "properties": {
              "name": {
                "type": "string",
                "default": "",
                "title": "The name Schema",
                "examples": [
                  "Earth"
                ]
              },
              "url": {
                "type": "string",
                "default": "",
                "title": "The url Schema",
                "examples": [
                  "https://rickandmorty.zuplo.io/v1/locations/1"
                ]
              }
            },
            "examples": [
              {
                "name": "Earth",
                "url": "https://rickandmorty.zuplo.io/v1/locations/1"
              }
            ]
          },
          "location": {
            "type": "object",
            "default": {},
            "title": "The location Schema",
            "required": [
              "name",
              "url"
            ],
            "properties": {
              "name": {
                "type": "string",
                "default": "",
                "title": "The name Schema",
                "examples": [
                  "Earth"
                ]
              },
              "url": {
                "type": "string",
                "default": "",
                "title": "The url Schema",
                "examples": [
                  "https://rickandmorty.zuplo.io/v1/locations/20"
                ]
              }
            },
            "examples": [
              {
                "name": "Earth",
                "url": "https://rickandmorty.zuplo.io/v1/locations/20"
              }
            ]
          },
          "image": {
            "type": "string",
            "default": "",
            "title": "The image Schema",
            "examples": [
              "https://rickandmorty.zuplo.io/v1/characters/avatar/1.jpeg"
            ]
          },
          "episode": {
            "type": "array",
            "default": [],
            "title": "The episode Schema",
            "items": {
              "type": "string",
              "title": "A Schema",
              "examples": [
                "https://rickandmorty.zuplo.io/v1/episode/1",
                "https://rickandmorty.zuplo.io/v1/episode/2"
              ]
            },
            "examples": [
              [
                "https://rickandmorty.zuplo.io/v1/episode/1",
                "https://rickandmorty.zuplo.io/v1/episode/2"
              ]
            ]
          },
          "url": {
            "type": "string",
            "default": "",
            "title": "The url Schema",
            "examples": [
              "https://rickandmorty.zuplo.io/v1/characters/1"
            ]
          },
          "created": {
            "type": "string",
            "default": "",
            "title": "The created Schema",
            "examples": [
              "2017-11-04T18:48:46.250Z"
            ]
          }
        },
        "examples": [
          {
            "id": 1,
            "name": "Rick Sanchez",
            "status": "Alive",
            "species": "Human",
            "type": "",
            "gender": "Male",
            "origin": {
              "name": "Earth",
              "url": "https://rickandmorty.zuplo.io/v1/locations/1"
            },
            "location": {
              "name": "Earth",
              "url": "https://rickandmorty.zuplo.io/v1/locations/20"
            },
            "image": "https://rickandmorty.zuplo.io/v1/characters/avatar/1.jpeg",
            "episode": [
              "https://rickandmorty.zuplo.io/v1/episode/1",
              "https://rickandmorty.zuplo.io/v1/episode/2"
            ],
            "url": "https://rickandmorty.zuplo.io/v1/characters/1",
            "created": "2017-11-04T18:48:46.250Z"
          }
        ]
      },
      "examples": [
        [
          {
            "id": 1,
            "name": "Rick Sanchez",
            "status": "Alive",
            "species": "Human",
            "type": "",
            "gender": "Male",
            "origin": {
              "name": "Earth",
              "url": "https://rickandmorty.zuplo.io/v1/locations/1"
            },
            "location": {
              "name": "Earth",
              "url": "https://rickandmorty.zuplo.io/v1/locations/20"
            },
            "image": "https://rickandmorty.zuplo.io/v1/characters/avatar/1.jpeg",
            "episode": [
              "https://rickandmorty.zuplo.io/v1/episode/1",
              "https://rickandmorty.zuplo.io/v1/episode/2"
            ],
            "url": "https://rickandmorty.zuplo.io/v1/characters/1",
            "created": "2017-11-04T18:48:46.250Z"
          }
        ]
      ]
    }
  },
  "examples": [
    {
      "info": {
        "count": 826,
        "pages": 42,
        "next": "https://rickandmorty.zuplo.io/v1/characters/?page=2",
        "prev": null
      },
      "results": [
        {
          "id": 1,
          "name": "Rick Sanchez",
          "status": "Alive",
          "species": "Human",
          "type": "",
          "gender": "Male",
          "origin": {
            "name": "Earth",
            "url": "https://rickandmorty.zuplo.io/v1/locations/1"
          },
          "location": {
            "name": "Earth",
            "url": "https://rickandmorty.zuplo.io/v1/locations/20"
          },
          "image": "https://rickandmorty.zuplo.io/v1/characters/avatar/1.jpeg",
          "episode": [
            "https://rickandmorty.zuplo.io/v1/episode/1",
            "https://rickandmorty.zuplo.io/v1/episode/2"
          ],
          "url": "https://rickandmorty.zuplo.io/v1/characters/1",
          "created": "2017-11-04T18:48:46.250Z"
        }
      ]
    }
  ]
}