{
  "$id": "http://example.com/all-locations.json",
  "type": "object",
  "default": {},
  "title": "Root Schema",
  "required": [
    "info",
    "results"
  ],
  "properties": {
    "info": {
      "type": "object",
      "default": {},
      "title": "The info Schema",
      "required": [
        "count",
        "pages",
        "next",
        "prev"
      ],
      "properties": {
        "count": {
          "type": "integer",
          "default": 0,
          "title": "The count Schema",
          "examples": [
            126
          ]
        },
        "pages": {
          "type": "integer",
          "default": 0,
          "title": "The pages Schema",
          "examples": [
            7
          ]
        },
        "next": {
          "type": "string",
          "default": "",
          "title": "The next Schema",
          "examples": [
            "https://rickandmorty.zuplo.io/v1/locations?page=2"
          ]
        },
        "prev": {
          "type": "null",
          "default": null,
          "title": "The prev Schema",
          "examples": [
            null
          ]
        }
      },
      "examples": [
        {
          "count": 126,
          "pages": 7,
          "next": "https://rickandmorty.zuplo.io/v1/locations?page=2",
          "prev": null
        }
      ]
    },
    "results": {
      "type": "array",
      "default": [],
      "title": "The results Schema",
      "items": {
        "type": "object",
        "default": {},
        "title": "A Schema",
        "required": [
          "id",
          "name",
          "type",
          "dimension",
          "residents",
          "url",
          "created"
        ],
        "properties": {
          "id": {
            "type": "integer",
            "default": 0,
            "title": "The id Schema",
            "examples": [
              1
            ]
          },
          "name": {
            "type": "string",
            "default": "",
            "title": "The name Schema",
            "examples": [
              "Earth"
            ]
          },
          "type": {
            "type": "string",
            "default": "",
            "title": "The type Schema",
            "examples": [
              "Planet"
            ]
          },
          "dimension": {
            "type": "string",
            "default": "",
            "title": "The dimension Schema",
            "examples": [
              "Dimension C-137"
            ]
          },
          "residents": {
            "type": "array",
            "default": [],
            "title": "The residents Schema",
            "items": {
              "type": "string",
              "title": "A Schema",
              "examples": [
                "https://rickandmorty.zuplo.io/v1/characters/1",
                "https://rickandmorty.zuplo.io/v1/characters/2"
              ]
            },
            "examples": [
              [
                "https://rickandmorty.zuplo.io/v1/characters/1",
                "https://rickandmorty.zuplo.io/v1/characters/2"
              ]
            ]
          },
          "url": {
            "type": "string",
            "default": "",
            "title": "The url Schema",
            "examples": [
              "https://rickandmorty.zuplo.io/v1/locations/1"
            ]
          },
          "created": {
            "type": "string",
            "default": "",
            "title": "The created Schema",
            "examples": [
              "2017-11-10T12:42:04.162Z"
            ]
          }
        },
        "examples": [
          {
            "id": 1,
            "name": "Earth",
            "type": "Planet",
            "dimension": "Dimension C-137",
            "residents": [
              "https://rickandmorty.zuplo.io/v1/characters/1",
              "https://rickandmorty.zuplo.io/v1/characters/2"
            ],
            "url": "https://rickandmorty.zuplo.io/v1/locations/1",
            "created": "2017-11-10T12:42:04.162Z"
          }
        ]
      },
      "examples": [
        [
          {
            "id": 1,
            "name": "Earth",
            "type": "Planet",
            "dimension": "Dimension C-137",
            "residents": [
              "https://rickandmorty.zuplo.io/v1/characters/1",
              "https://rickandmorty.zuplo.io/v1/characters/2"
            ],
            "url": "https://rickandmorty.zuplo.io/v1/locations/1",
            "created": "2017-11-10T12:42:04.162Z"
          }
        ]
      ]
    }
  },
  "examples": [
    {
      "info": {
        "count": 126,
        "pages": 7,
        "next": "https://rickandmorty.zuplo.io/v1/locations?page=2",
        "prev": null
      },
      "results": [
        {
          "id": 1,
          "name": "Earth",
          "type": "Planet",
          "dimension": "Dimension C-137",
          "residents": [
            "https://rickandmorty.zuplo.io/v1/characters/1",
            "https://rickandmorty.zuplo.io/v1/characters/2"
          ],
          "url": "https://rickandmorty.zuplo.io/v1/locations/1",
          "created": "2017-11-10T12:42:04.162Z"
        }
      ]
    }
  ]
}